Part 1
Key= BEGIN

Encrypted Text=
DC GR CW GN ND SY CN OP IP CK UP KA IR EF YG UP CW

Part 2
)*+,-./0123456789:;<=>?@ABCDEFGHIJKLMNOPQRSTUVWXYZ[\]^_`abcdefghijklmnopqrstuvwxyz{|}~!"#$%&'(
6e?FP|x3+<%&NrZU,iVK2Xb`}<@vLEa)wt~"Hy7[mqsp#ko5AJh,gc^n_zMCG'!fl-8{(BQ4uj=:Y;D/]9O.SWT$1I\S*d

Part 3
ohyg`( (S@B@. ~:(~V{to'\9.|'&aS)xHq{